{
  "main": {
    "id": "08b4214c97ce60d5",
    "type": "split",
    "children": [
      {
        "id": "f36bc8275311fb25",
        "type": "tabs",
        "children": [
          {
            "id": "a55d9289aac749e4",
            "type": "leaf",
            "state": {
              "type": "markdown",
              "state": {
                "file": "_posts/生活/聚沙成塔/壬寅日.md",
                "mode": "source",
                "source": false
              }
            }
          },
          {
            "id": "31c7f7fead0ebaa2",
            "type": "leaf",
            "state": {
              "type": "graph",
              "state": {}
            }
          }
        ]
      }
    ],
    "direction": "vertical"
  },
  "left": {
    "id": "ba78422ed52ca565",
    "type": "mobile-drawer",
    "children": [
      {
        "id": "e86bef541d3b16c7",
        "type": "leaf",
        "state": {
          "type": "file-explorer",
          "state": {
            "sortOrder": "byModifiedTime"
          }
        }
      },
      {
        "id": "d333adbe588daabe",
        "type": "leaf",
        "state": {
          "type": "search",
          "state": {
            "query": "牛顿",
            "matchingCase": false,
            "explainSearch": false,
            "collapseAll": true,
            "extraContext": false,
            "sortOrder": "alphabetical"
          }
        }
      },
      {
        "id": "78ded90de44a826c",
        "type": "leaf",
        "state": {
          "type": "tag",
          "state": {
            "sortOrder": "frequency",
            "useHierarchy": true
          }
        }
      },
      {
        "id": "9f7f3f0343da7747",
        "type": "leaf",
        "state": {
          "type": "starred",
          "state": {}
        }
      }
    ],
    "currentTab": 0
  },
  "right": {
    "id": "00e5c6ad41256c29",
    "type": "mobile-drawer",
    "children": [
      {
        "id": "4cbc6d59bbb5a2e6",
        "type": "leaf",
        "state": {
          "type": "backlink",
          "state": {
            "file": "_posts/生活/聚沙成塔/壬寅日.md",
            "collapseAll": false,
            "extraContext": false,
            "sortOrder": "alphabetical",
            "showSearch": false,
            "searchQuery": "",
            "backlinkCollapsed": false,
            "unlinkedCollapsed": true
          }
        }
      },
      {
        "id": "e4d602e0aad036c0",
        "type": "leaf",
        "state": {
          "type": "outgoing-link",
          "state": {
            "file": "_posts/生活/聚沙成塔/壬寅日.md",
            "linksCollapsed": false,
            "unlinkedCollapsed": true
          }
        }
      },
      {
        "id": "88ebb9874284853f",
        "type": "leaf",
        "state": {
          "type": "outline",
          "state": {
            "file": "_posts/生活/聚沙成塔/壬寅日.md"
          }
        }
      }
    ],
    "currentTab": 2
  },
  "active": "a55d9289aac749e4",
  "lastOpenFiles": [
    "_posts/生活/杂谈/博客写作方法论.md",
    "_posts/生活/聚沙成塔/壬寅日.md",
    "_posts/生活/聚沙成塔/辛丑日.md",
    "_drafts/笔记本.md",
    "_posts/学习/课程笔记/数值分析/插值法.md",
    "images/20221012/IMG_20221208_135955.jpg",
    "images/20221012/IMG_20221213_210649.jpg",
    "images/20221012/Screenshot_2022-12-13-21-06-13-461-edit_com.tencent.mm.jpg",
    "images/20221012/IMG_20221214_122907.jpg",
    "images/20221012/IMG_20221214_122825.jpg"
  ]
}